<?xml version="1.0" encoding="UTF-8"?>
<svg width="53px" height="53px" viewBox="0 0 53 53" version="1.1" xmlns="http://www.w3.org/2000/svg" xmlns:xlink="http://www.w3.org/1999/xlink">
    <!-- Generator: Sketch 60.1 (88133) - https://sketch.com -->
    <title>planet-morak</title>
    <desc>Created with Sketch.</desc>
    <defs>
        <path d="M0.774,23.59 C0.774,36.092 10.908,46.228 23.412,46.228 L23.412,46.228 C35.912,46.228 46.05,36.092 46.05,23.59 L46.05,23.59 C46.05,11.088 35.912,0.952 23.412,0.952 L23.412,0.952 C10.908,0.952 0.774,11.088 0.774,23.59" id="path-1"></path>
        <path d="M0.774,23.59 C0.774,36.092 10.908,46.228 23.412,46.228 L23.412,46.228 C35.912,46.228 46.05,36.092 46.05,23.59 L46.05,23.59 C46.05,11.088 35.912,0.952 23.412,0.952 L23.412,0.952 C10.908,0.952 0.774,11.088 0.774,23.59" id="path-3"></path>
        <path d="M0.774,23.59 C0.774,36.092 10.908,46.228 23.412,46.228 L23.412,46.228 C35.912,46.228 46.05,36.092 46.05,23.59 L46.05,23.59 C46.05,11.088 35.912,0.952 23.412,0.952 L23.412,0.952 C10.908,0.952 0.774,11.088 0.774,23.59" id="path-5"></path>
    </defs>
    <g id="Badges-&amp;-Planets" stroke="none" stroke-width="1" fill="none" fill-rule="evenodd">
        <g transform="translate(-531.000000, -419.000000)" id="planet-morak">
            <g transform="translate(525.000000, 413.000000)">
                <g transform="translate(6.000000, 5.000000)">
                    <g id="Group-6" transform="translate(0.000000, 0.821200)">
                        <path d="M52.8206,26.5898 C52.8206,12.0038 40.9966,0.1778 26.4106,0.1778 C11.8246,0.1778 0.0006,12.0038 0.0006,26.5898 C0.0006,41.1758 11.8246,52.9998 26.4106,52.9998 C40.9966,52.9998 52.8206,41.1758 52.8206,26.5898" id="Fill-1" fill-opacity="0.2" fill="#B2A6D1"></path>
                        <path d="M49.0492,26.5898 C49.0492,14.0878 38.9132,3.9518 26.4112,3.9518 C13.9092,3.9518 3.7732,14.0878 3.7732,26.5898 C3.7732,39.0918 13.9092,49.2278 26.4112,49.2278 C38.9132,49.2278 49.0492,39.0918 49.0492,26.5898" id="Fill-4" fill="#5F549F"></path>
                    </g>
                    <g id="Group-16" transform="translate(3.000000, 3.821200)">
                        <g id="Group-9">
                            <mask id="mask-2" fill="white">
                                <use xlink:href="#path-1"></use>
                            </mask>
                            <g id="Clip-8"></g>
                            <path d="M46.0024,23.7226 C46.0024,27.2286 45.2104,30.5526 43.7944,33.5186 C43.4204,33.4146 43.0544,33.2906 42.7004,33.1346 C40.4264,32.1566 38.5844,29.7726 38.9884,27.3306 C39.1404,26.4086 39.5864,25.4706 39.2824,24.5906 C38.4144,22.0566 33.8444,24.2166 32.0984,22.1886 C30.1704,19.9546 34.1284,15.8906 32.0324,13.8126 C30.7584,12.5506 28.4104,13.4486 26.9444,12.4186 C25.2684,11.2406 25.9224,8.6926 25.9844,6.6466 C26.0324,4.9386 24.2984,2.6646 23.6444,0.9526 C36.0324,1.1746 46.0024,11.2886 46.0024,23.7226" id="Fill-7" fill="#7769AC" mask="url(#mask-2)"></path>
                        </g>
                        <g id="Group-12">
                            <mask id="mask-4" fill="white">
                                <use xlink:href="#path-3"></use>
                            </mask>
                            <g id="Clip-11"></g>
                            <path d="M30.848,38.6386 C29.35,40.1006 26.852,39.4306 24.964,38.5246 C23.074,37.6186 20.884,36.5466 19.002,37.4726 C18.528,38.9666 19.306,40.7566 20.724,41.4306 C21.718,41.8986 22.998,41.9186 23.664,42.7926 C23.98,43.2146 24.08,43.7546 24.172,44.2726 C24.3,45.0026 24.432,45.7346 24.56,46.4646 C24.12,46.4886 23.672,46.5026 23.222,46.5026 C10.64,46.5026 0.442,36.3046 0.442,23.7226 C0.442,20.3666 1.168,17.1786 2.472,14.3066 C4.286,14.5006 6.426,14.8706 8.932,14.9046 C12.012,14.9426 15.898,14.9186 17.17,17.7226 C18.144,19.8586 17.004,22.8306 18.714,24.4386 C20.95,26.5466 25.71,23.9546 27.236,26.6186 C28.39,28.6246 26.184,31.7586 27.944,33.2566 C28.566,33.7886 29.46,33.8406 30.18,34.2106 C31.736,35.0046 32.098,37.4246 30.848,38.6386" id="Fill-10" fill="#7769AC" mask="url(#mask-4)"></path>
                        </g>
                        <g id="Group-15">
                            <mask id="mask-6" fill="white">
                                <use xlink:href="#path-5"></use>
                            </mask>
                            <g id="Clip-14"></g>
                            <path d="M36.221,5.0136 C39.939,9.0676 42.213,14.4676 42.213,20.3996 C42.213,23.9076 41.421,27.2296 40.007,30.1956 C36.631,37.2636 29.731,42.3176 21.579,43.0816 C21.313,43.1056 21.041,43.1296 20.771,43.1416 C20.331,43.1676 19.883,43.1796 19.431,43.1796 C14.593,43.1796 10.107,41.6656 6.417,39.0916 C10.583,43.6456 16.571,46.5036 23.229,46.5036 C23.679,46.5036 24.127,46.4896 24.569,46.4656 C24.839,46.4516 25.109,46.4276 25.375,46.4036 C33.527,45.6396 40.429,40.5856 43.803,33.5176 C45.217,30.5516 46.011,27.2296 46.011,23.7216 C46.011,15.9736 42.137,9.1276 36.221,5.0136" id="Fill-13" fill="#5F549F" mask="url(#mask-6)"></path>
                        </g>
                    </g>
                </g>
            </g>
        </g>
    </g>
</svg>