<?xml version="1.0" encoding="UTF-8"?>
<svg width="58px" height="62px" viewBox="0 0 58 62" version="1.1" xmlns="http://www.w3.org/2000/svg" xmlns:xlink="http://www.w3.org/1999/xlink">
    <!-- Generator: Sketch 60.1 (88133) - https://sketch.com -->
    <title>planet-blua</title>
    <desc>Created with Sketch.</desc>
    <defs>
        <path d="M0.932,23.142 C0.932,35.644 11.068,45.78 23.57,45.78 L23.57,45.78 C36.074,45.78 46.208,35.644 46.208,23.142 L46.208,23.142 C46.208,10.64 36.074,0.504 23.57,0.504 L23.57,0.504 C11.068,0.504 0.932,10.64 0.932,23.142" id="path-1"></path>
        <path d="M0.932,23.142 C0.932,35.644 11.068,45.78 23.57,45.78 L23.57,45.78 C36.074,45.78 46.208,35.644 46.208,23.142 L46.208,23.142 C46.208,10.64 36.074,0.504 23.57,0.504 L23.57,0.504 C11.068,0.504 0.932,10.64 0.932,23.142" id="path-3"></path>
        <path d="M0.932,23.142 C0.932,35.644 11.068,45.78 23.57,45.78 L23.57,45.78 C36.074,45.78 46.208,35.644 46.208,23.142 L46.208,23.142 C46.208,10.64 36.074,0.504 23.57,0.504 L23.57,0.504 C11.068,0.504 0.932,10.64 0.932,23.142" id="path-5"></path>
        <polygon id="path-7" points="0.335 0.544 10.567 0.544 10.567 10.7752 0.335 10.7752"></polygon>
    </defs>
    <g id="Badges-&amp;-Planets" stroke="none" stroke-width="1" fill="none" fill-rule="evenodd">
        <g transform="translate(-945.000000, -414.000000)" id="planet-blua">
            <g transform="translate(941.000000, 413.000000)">
                <g transform="translate(4.000000, 0.000000)">
                    <path d="M51.2076,34.5984 C51.2076,22.0964 41.0736,11.9604 28.5716,11.9604 C16.0676,11.9604 5.9316,22.0964 5.9316,34.5984 C5.9316,47.1004 16.0676,57.2364 28.5716,57.2364 C41.0736,57.2364 51.2076,47.1004 51.2076,34.5984" id="Fill-1" fill="#52A3DA"></path>
                    <g id="Group-12" transform="translate(5.000000, 11.456800)">
                        <g id="Group-5">
                            <mask id="mask-2" fill="white">
                                <use xlink:href="#path-1"></use>
                            </mask>
                            <g id="Clip-4"></g>
                            <path d="M36.3796,4.5656 C40.0996,8.6196 42.3736,14.0216 42.3736,19.9536 C42.3736,23.4596 41.5816,26.7816 40.1676,29.7476 C36.7916,36.8156 29.8916,41.8696 21.7376,42.6336 C21.4716,42.6576 21.2016,42.6816 20.9296,42.6956 C20.4896,42.7196 20.0436,42.7336 19.5916,42.7336 C14.7516,42.7336 10.2656,41.2196 6.5776,38.6456 C10.7416,43.1976 16.7316,46.0556 23.3896,46.0556 C23.8396,46.0556 24.2856,46.0416 24.7276,46.0176 C24.9996,46.0036 25.2676,45.9796 25.5336,45.9556 C33.6876,45.1916 40.5876,40.1376 43.9636,33.0696 C45.3776,30.1056 46.1716,26.7816 46.1716,23.2756 C46.1716,15.5256 42.2956,8.6796 36.3796,4.5656" id="Fill-3" fill="#1665A6" mask="url(#mask-2)"></path>
                        </g>
                        <g id="Group-8">
                            <mask id="mask-4" fill="white">
                                <use xlink:href="#path-3"></use>
                            </mask>
                            <g id="Clip-7"></g>
                            <path d="M-14.6986,18.2912 C-6.6126,16.6732 57.5254,-7.0428 57.5254,-7.0428 C57.5254,-7.0428 66.1514,4.8172 63.4554,5.8952 C60.7594,6.9712 -14.6986,18.2912 -14.6986,18.2912" id="Fill-6" fill="#1665A6" mask="url(#mask-4)"></path>
                        </g>
                        <g id="Group-11">
                            <mask id="mask-6" fill="white">
                                <use xlink:href="#path-5"></use>
                            </mask>
                            <g id="Clip-10"></g>
                            <path d="M64.7408,35.0246 C56.5008,34.7786 -11.3332,43.4366 -11.3332,43.4366 C-11.3332,43.4366 -17.0632,29.9406 -14.1972,29.4966 C-11.3272,29.0526 64.7408,35.0246 64.7408,35.0246" id="Fill-9" fill="#1665A6" mask="url(#mask-6)"></path>
                        </g>
                    </g>
                    <g id="Group-30" transform="translate(0.000000, 0.456800)">
                        <path d="M56.8678,33.6026 C56.8678,17.9746 44.1978,5.3066 28.5718,5.3066 C12.9418,5.3066 0.2718,17.9746 0.2718,33.6026 C0.2718,49.2306 12.9418,61.9006 28.5718,61.9006 C44.1978,61.9006 56.8678,49.2306 56.8678,33.6026 Z" id="Stroke-13" stroke="#0C66A7" stroke-width="0.5"></path>
                        <g id="Group-17" transform="translate(16.000000, 0.000000)">
                            <mask id="mask-8" fill="white">
                                <use xlink:href="#path-7"></use>
                            </mask>
                            <g id="Clip-16"></g>
                            <path d="M10.567,5.6592 C10.567,8.4852 8.275,10.7752 5.449,10.7752 C2.623,10.7752 0.335,8.4852 0.335,5.6592 C0.335,2.8332 2.623,0.5432 5.449,0.5432 C8.275,0.5432 10.567,2.8332 10.567,5.6592" id="Fill-15" fill="#1665A6" mask="url(#mask-8)"></path>
                        </g>
                        <path d="M50.6686,54.75 C50.6686,56.414 49.3206,57.76 47.6586,57.76 C45.9966,57.76 44.6486,56.414 44.6486,54.75 C44.6486,53.088 45.9966,51.74 47.6586,51.74 C49.3206,51.74 50.6686,53.088 50.6686,54.75" id="Fill-18" fill="#1665A6"></path>
                        <path d="M49.0124,52.0616 C49.6984,52.6136 50.1364,53.4616 50.1344,54.4116 C50.1304,56.0736 48.7804,57.4176 47.1184,57.4136 C46.6344,57.4136 46.1744,57.2976 45.7704,57.0936 C46.2844,57.5096 46.9384,57.7596089 47.6524,57.7596089 C49.3144,57.7636 50.6644,56.4196 50.6684044,54.7576 C50.6704,53.5796 49.9964,52.5596 49.0124,52.0616" id="Fill-20" fill="#231F20"></path>
                        <path d="M30.0826122,30.4748 C30.0766,33.2128 27.8526,35.4268 25.1146,35.4208122 C22.3746,35.4148 20.1606,33.1908 20.1665878,30.4528 C20.1726,27.7148 22.3966,25.5008 25.1346,25.5067878 C27.8746,25.5128 30.0886,27.7368 30.0826122,30.4748" id="Fill-22" fill="#1665A6"></path>
                        <path d="M25.9382,34.7334 C23.2002,34.7274 20.9842,32.5034 20.9902,29.7654 C20.9922,28.4314 21.5222,27.2234 22.3822,26.3334 C21.0502,27.2194 20.1682,28.7334 20.1661878,30.4534 C20.1602,33.1914 22.3762,35.4154 25.1122,35.4214052 C26.5182,35.4234 27.7862,34.8434 28.6902,33.9054 C27.9022,34.4314 26.9562,34.7354 25.9382,34.7334" id="Fill-24" fill="#0D457F"></path>
                        <path d="M34.7878103,36.5138 C34.7838,37.9438 33.6218,39.1018 32.1898,39.0998026 C30.7578,39.0978 29.6018,37.9338 29.6037974,36.5018 C29.6078,35.0718 30.7698,33.9138 32.2018,33.9157974 C33.6338,33.9198 34.7918,35.0818 34.7878103,36.5138" id="Fill-26" fill="#1665A6"></path>
                        <path d="M32.6218,38.7404 C31.1898,38.7364 30.0318,37.5744 30.0358,36.1424 C30.0378,35.4464 30.3138,34.8144 30.7618,34.3484 C30.0658,34.8124 29.6058,35.6044 29.6037974,36.5024 C29.6018,37.9344 30.7578,39.0964 32.1898,39.1004 C32.9238,39.1004 33.5878,38.7964 34.0618,38.3084 C33.6498,38.5824 33.1538,38.7404 32.6218,38.7404" id="Fill-28" fill="#0D457F"></path>
                    </g>
                </g>
            </g>
        </g>
    </g>
</svg>